{
  "tests": [
    {
      "targets": [
        "fiber_sync_mutex_unit_tests"
      ],
      "profiles": [
        "Debug",
        "DebugASan"
      ]
    },
    {
      "targets": [
        "fiber_sync_mutex_random_tests"
      ],
      "profiles": [
        "Matrix"
      ]
    },
    {
      "targets": [
        "fiber_sync_mutex_stress_tests"
      ],
      "profiles": [
        "Release",
        "FaultyThreadASan",
        "FaultyThreadTSan",
        "Fiber"
      ]
    }
  ]
}
